Week 5 Bioinformatics with Bioconductor | 40 Days and 40 Nights
…
records <- readr::read_csv(csv_file)
## Parsed with column specification:
## cols(
##   accession = col_character(),
##   link = col_character(),
##   date = col_date(format = ""),
##   country = col_character(),
##   region = col_character()
## )
records
## # A tibble: 2,434 x 5
##    accession link                                    date       country   region
##    <chr>     <chr>                                   <date>     <chr>     <chr> 
##  1 NC_045512 https://www.ncbi.nlm.nih.gov/nuccore/N… NA         China     <NA>  
##  2 MT447189  https://www.ncbi.nlm.nih.gov/nuccore/M… 2020-03-02 Uzbekist… <NA>  
##  3 MT447188  https://www.ncbi.nlm.nih.gov/nuccore/M… 2020-03-02 Uzbekist… <NA>  
##  4 MT447177  https://www.ncbi.nlm.nih.gov/nuccore/M… 2020-03-26 Iran      <NA>  
##  5 MT447176  https://www.ncbi.nlm.nih.gov/nuccore/M… 2020-03-20 Thailand  <NA>  
##  6 MT447175  https://www.ncbi.nlm.nih.gov/nuccore/M… 2020-03-19 Thailand  <NA>  
##  7 MT447174  https://www.ncbi.nlm.nih.gov/nuccore/M… 2020-03-01 Thailand  <NA>  
##  8 MT447173  https://www.ncbi.nlm.nih.gov/nuccore/M… 2020-03-18 Thailand  <NA>  
##  9 MT447172  https://www.ncbi.nlm.nih.gov/nuccore/M… 2020-03-18 Thailand  <NA>  
## 10 MT447171  https://www.ncbi.nlm.nih.gov/nuccore/M… 2020-03-16 Thailand  <NA>  
## # … with 2,424 more rows
…
With this information, it’s easy to count the number of times each sequence was represented. The reference sequence belongs to cluster 1.

clusters %>% filter(accession == "NC_045512")
## # A tibble: 1 x 2
##   accession label
##   <chr>     <chr>
## 1 NC_045512 1

clusters %>%
    count(label) %>%
    arrange(desc(n))
## # A tibble: 343 x 2
##    label     n
##    <chr> <int>
##  1 11     1117
##  2 1       723
##  3 126      21
##  4 34       10
##  5 341      10
##  6 125       6
##  7 167       6
##  8 47        6
##  9 59        6
## 10 170       5
## # … with 333 more rows
…
Read the data from the Newick-format file created by DECIPHER

dendrogram_file <- file.path(workdir, "SARS-CoV2-S.newick")
tree <- treeio::read.newick(dendrogram_file)
tree
## 
## Phylogenetic tree with 343 tips and 288 internal nodes.
## 
## Tip labels:
##  228, 267, 298, 294, 77, 189, ...
## 
## Rooted; includes branch lengths.
tibble::as_tibble(tree)
## # A tibble: 631 x 4
##    parent  node branch.length label
##     <int> <int>         <dbl> <chr>
##  1    346     1      0        228  
##  2    346     2      0.00385  267  
##  3    347     3      0        298  
##  4    348     4      0        294  
##  5    349     5      0        77   
##  6    349     6      0.00600  189  
##  7    350     7      0        295  
##  8    351     8      0.000580 280  
##  9    352     9      0        297  
## 10    353    10      0        87   
## # … with 621 more rows
…
url <- "https://github.com/mtmorgan/QuaRantine/raw/master/assets/05-internal_nonsmokerslung.h5ad"
destination <- file.path(workdir, basename(url))
if (!file.exists(destination))
    download.file(url, destination)

The file is an ‘hdf5’ file format, used to store relatively large data sets in a binary format that allows for faster and more robust input than a CSV file. R and other software packages can read hdf5 files, but Excel, etc.

5.4.2 Data input and exploration

There are two main components to the data. The first describes each observation (cell).

obs <- read_obs(destination)
obs
## # A tibble: 240,511 x 7
##      Age `Cell Type` Count Gender Patient_ID Tissue              cell_subset    
##    <dbl> <fct>       <int> <fct>  <fct>      <fct>               <fct>          
##  1    57 Basal           1 F      HU28       internal_nonsmoker… Epithelial (ba…
##  2    57 Basal           1 F      HU28       internal_nonsmoker… Epithelial (ba…
##  3    57 Basal           1 F      HU28       internal_nonsmoker… Epithelial (ba…
##  4    57 Basal           1 F      HU28       internal_nonsmoker… Epithelial (ba…
##  5    57 Secretory       1 F      HU28       internal_nonsmoker… Secretory      
##  6    57 Basal           1 F      HU28       internal_nonsmoker… Epithelial (ba…
##  7    57 Basal           1 F      HU28       internal_nonsmoker… Epithelial (ba…
##  8    57 Basal           1 F      HU28       internal_nonsmoker… Epithelial (ba…
##  9    57 Basal           1 F      HU28       internal_nonsmoker… Epithelial (ba…
## 10    57 Secretory       1 F      HU28       internal_nonsmoker… Secretory      
## # … with 240,501 more rows
…
Fraction of zero elements

sum(x == 0) / (nrow(x) * ncol(x))
## [1] 0.8166905

More than 80% of the values are zeros! This primarily represents limitations of the technology, where relatively few ‘reads’ are available from each cell, so only a fraction of the genes being expressed are detected.

Use the function rowMeans() to calculate average expression of each gene; present this as a tibble

tibble(
    gene = rownames(x),
    average_expression = rowMeans(x)
)
## # A tibble: 22 x 2
##    gene    average_expression
##    <chr>                <dbl>
##  1 ACE2               0.00539
##  2 TMPRSS2            0.0877 
##  3 IL6                0.144  
##  4 IL6R               0.0923 
##  5 IL6ST              0.386  
##  6 PCSK1              0.00302
##  7 PCSK2              0.0117 
##  8 FURIN              0.0908 
##  9 PCSK4              0.00728
## 10 PCSK5              0.0740 
## # … with 12 more rows
…
We will perform some simple visualization, as we start to explore the data. Create a tibble containing the cell_subset annotation and the expression values of the ACE2 gene. We make use of $ to access columns of the cell annotation (colData) and assay() to access the expression data. as.vector() changes the one-dimensional array returned by assay() into a numeric vector.

tbl <- tibble(
    cell_subset = ace2$cell_subset,
    expression = as.vector(assay(ace2))
)
tbl
## # A tibble: 240,511 x 2
##    cell_subset        expression
##    <fct>                   <dbl>
##  1 Epithelial (basal)          0
##  2 Epithelial (basal)          0
##  3 Epithelial (basal)          0
##  4 Epithelial (basal)          0
##  5 Secretory                   0
##  6 Epithelial (basal)          0
##  7 Epithelial (basal)          0
##  8 Epithelial (basal)          0
##  9 Epithelial (basal)          0
## 10 Secretory                   0
## # … with 240,501 more rows
…
as.vector(m)
##  [1]  1  2  3  4  5  6  7  8  9 10 11 12

Putting this together

two_genes <- subset(sce, rownames(sce) %in% c("ACE2", "TMPRSS2"))
tbl <- tibble(
    gene = rep(rownames(two_genes), ncol(two_genes)),
    cell = rep(colnames(two_genes), each = nrow(two_genes)),
    expression = as.vector(assay(two_genes))
)
tbl
## # A tibble: 481,022 x 3
##    gene    cell            expression
##    <chr>   <chr>                <dbl>
##  1 ACE2    1B_cell57_HU28       0    
##  2 TMPRSS2 1B_cell57_HU28       0.600
##  3 ACE2    1B_cell418_HU28      0    
##  4 TMPRSS2 1B_cell418_HU28      0.769
##  5 ACE2    1B_cell611_HU28      0    
##  6 TMPRSS2 1B_cell611_HU28      0    
##  7 ACE2    1B_cell617_HU28      0    
##  8 TMPRSS2 1B_cell617_HU28      0    
##  9 ACE2    1B_cell885_HU28      0    
## 10 TMPRSS2 1B_cell885_HU28      1.09 
## # … with 481,012 more rows

I’d like to plot the expression of one gene against the expression of the other. It is convenient to transform the tidy tibble we just created to have a separate column for each gene. Use tidyr::pivot_wider() for this operation

wider_tbl <-
    tbl %>%
    mutate(expression = log(expression)) %>%
    tidyr::pivot_wider(names_from=gene, values_from=expression)

wider_tbl
## # A tibble: 240,511 x 3
##    cell              ACE2   TMPRSS2
##    <chr>            <dbl>     <dbl>
##  1 1B_cell57_HU28    -Inf   -0.510 
##  2 1B_cell418_HU28   -Inf   -0.263 
##  3 1B_cell611_HU28   -Inf -Inf     
##  4 1B_cell617_HU28   -Inf -Inf     
##  5 1B_cell885_HU28   -Inf    0.0879
##  6 1B_cell968_HU28   -Inf -Inf     
##  7 1B_cell1008_HU28  -Inf -Inf     
##  8 1B_cell1060_HU28  -Inf   -0.300 
##  9 1B_cell1156_HU28  -Inf   -0.675 
## 10 1B_cell1370_HU28  -Inf -Inf     
## # … with 240,501 more rows
…
