Week 4 Machine learning | 40 Days and 40 Nights
…
metadata_file <- file.path("assets", "statewide_covid_19_metadata_04_27_2020.csv")
mdf <- read_csv(metadata_file)
## Parsed with column specification:
## cols(
##   ID = col_double(),
##   Code = col_character(),
##   Variable = col_character(),
##   Description = col_character()
## )
mdf
## # A tibble: 36 x 4
##       ID Code  Variable             Description                      
##    <dbl> <chr> <chr>                <chr>                            
##  1     1 X01   Pct_Sun              Percent sunny days               
##  2     2 X02   Total_Hours_Sun      Total hours of sun               
##  3     3 X03   Num_Clear_Days       Number of clear days             
##  4     4 X04   Avg_RH               Average relative himidity        
##  5     5 X05   Avg_Dew_Point        Average dew point                
##  6     6 X06   Total_Population     Total population                 
##  7     7 X07   Senior_Pop_Thousands Population 65+ years in thousands
##  8     8 X08   Senior_Pop_Pct       Percentage of population 65+ year
##  9     9 X09   per_capita_income    per capita income                
## 10    10 X10   Unemployment_Rate    Percent unemployment             
## # … with 26 more rows
…
