Week 3 Packages and the ‘tidyverse’ | 40 Days and 40 Nights
…
Example: US COVID data. N.B., readr::read_csv() rather than read.csv()

url <- "https://raw.githubusercontent.com/nytimes/covid-19-data/master/us-counties.csv"
us <- read_csv(url)
## Parsed with column specification:
## cols(
##   date = col_date(format = ""),
##   county = col_character(),
##   state = col_character(),
##   fips = col_character(),
##   cases = col_double(),
##   deaths = col_double()
## )
us
## # A tibble: 141,403 x 6
##    date       county      state      fips  cases deaths
##    <date>     <chr>       <chr>      <chr> <dbl>  <dbl>
##  1 2020-01-21 Snohomish   Washington 53061     1      0
##  2 2020-01-22 Snohomish   Washington 53061     1      0
##  3 2020-01-23 Snohomish   Washington 53061     1      0
##  4 2020-01-24 Cook        Illinois   17031     1      0
##  5 2020-01-24 Snohomish   Washington 53061     1      0
##  6 2020-01-25 Orange      California 06059     1      0
##  7 2020-01-25 Cook        Illinois   17031     1      0
##  8 2020-01-25 Snohomish   Washington 53061     1      0
##  9 2020-01-26 Maricopa    Arizona    04013     1      0
## 10 2020-01-26 Los Angeles California 06037     1      0
## # … with 141,393 more rows
…
library(dplyr)

dplyr implements a small number of verbs for data transformation

A small set of functions that allow very rich data transformation

All have the same first argument – the tibble to be transformed

All allow ‘non-standard’ evaluation – use the variable name without quotes ".

filter() rows that meet specific criteria

filter(us, state == "New York", county == "Erie")
## # A tibble: 60 x 6
##    date       county state    fips  cases deaths
##    <date>     <chr>  <chr>    <chr> <dbl>  <dbl>
##  1 2020-03-15 Erie   New York 36029     3      0
##  2 2020-03-16 Erie   New York 36029     6      0
##  3 2020-03-17 Erie   New York 36029     7      0
##  4 2020-03-18 Erie   New York 36029     7      0
##  5 2020-03-19 Erie   New York 36029    28      0
##  6 2020-03-20 Erie   New York 36029    31      0
##  7 2020-03-21 Erie   New York 36029    38      0
##  8 2020-03-22 Erie   New York 36029    54      0
##  9 2020-03-23 Erie   New York 36029    87      0
## 10 2020-03-24 Erie   New York 36029   107      0
## # … with 50 more rows

dplyr uses the ‘pipe’ %>% as a way to chain data and functions together

us %>%
    filter(state == "New York", county == "Erie")
## # A tibble: 60 x 6
##    date       county state    fips  cases deaths
##    <date>     <chr>  <chr>    <chr> <dbl>  <dbl>
##  1 2020-03-15 Erie   New York 36029     3      0
##  2 2020-03-16 Erie   New York 36029     6      0
##  3 2020-03-17 Erie   New York 36029     7      0
##  4 2020-03-18 Erie   New York 36029     7      0
##  5 2020-03-19 Erie   New York 36029    28      0
##  6 2020-03-20 Erie   New York 36029    31      0
##  7 2020-03-21 Erie   New York 36029    38      0
##  8 2020-03-22 Erie   New York 36029    54      0
##  9 2020-03-23 Erie   New York 36029    87      0
## 10 2020-03-24 Erie   New York 36029   107      0
## # … with 50 more rows

The pipe works by transforming whatever is on the left-hand side of the %>% to the first argument of the function on the right-hand side.

Like filter(), most dplyr functions take as their first argument a tibble, and return a tibble. So the functions can be chained together, as in the following example.

select() specific columns

us %>%
    filter(state == "New York", county == "Erie") %>%
    select(state, county, date, cases)
## # A tibble: 60 x 4
##    state    county date       cases
##    <chr>    <chr>  <date>     <dbl>
##  1 New York Erie   2020-03-15     3
##  2 New York Erie   2020-03-16     6
##  3 New York Erie   2020-03-17     7
##  4 New York Erie   2020-03-18     7
##  5 New York Erie   2020-03-19    28
##  6 New York Erie   2020-03-20    31
##  7 New York Erie   2020-03-21    38
##  8 New York Erie   2020-03-22    54
##  9 New York Erie   2020-03-23    87
## 10 New York Erie   2020-03-24   107
## # … with 50 more rows
…
Read US COVID data. N.B., readr::read_csv() rather than read.csv()

url <- "https://raw.githubusercontent.com/nytimes/covid-19-data/master/us-counties.csv"
us <- read_csv(url)
## Parsed with column specification:
## cols(
##   date = col_date(format = ""),
##   county = col_character(),
##   state = col_character(),
##   fips = col_character(),
##   cases = col_double(),
##   deaths = col_double()
## )
us
## # A tibble: 141,403 x 6
##    date       county      state      fips  cases deaths
##    <date>     <chr>       <chr>      <chr> <dbl>  <dbl>
##  1 2020-01-21 Snohomish   Washington 53061     1      0
##  2 2020-01-22 Snohomish   Washington 53061     1      0
##  3 2020-01-23 Snohomish   Washington 53061     1      0
##  4 2020-01-24 Cook        Illinois   17031     1      0
##  5 2020-01-24 Snohomish   Washington 53061     1      0
##  6 2020-01-25 Orange      California 06059     1      0
##  7 2020-01-25 Cook        Illinois   17031     1      0
##  8 2020-01-25 Snohomish   Washington 53061     1      0
##  9 2020-01-26 Maricopa    Arizona    04013     1      0
## 10 2020-01-26 Los Angeles California 06037     1      0
## # … with 141,393 more rows

filter() rows that meet specific criteria

us %>%
    filter(state == "New York", county == "Erie")
## # A tibble: 60 x 6
##    date       county state    fips  cases deaths
##    <date>     <chr>  <chr>    <chr> <dbl>  <dbl>
##  1 2020-03-15 Erie   New York 36029     3      0
##  2 2020-03-16 Erie   New York 36029     6      0
##  3 2020-03-17 Erie   New York 36029     7      0
##  4 2020-03-18 Erie   New York 36029     7      0
##  5 2020-03-19 Erie   New York 36029    28      0
##  6 2020-03-20 Erie   New York 36029    31      0
##  7 2020-03-21 Erie   New York 36029    38      0
##  8 2020-03-22 Erie   New York 36029    54      0
##  9 2020-03-23 Erie   New York 36029    87      0
## 10 2020-03-24 Erie   New York 36029   107      0
## # … with 50 more rows

select() specific columns

us %>%
    filter(state == "New York", county == "Erie") %>%
    select(state, county, date, cases)
## # A tibble: 60 x 4
##    state    county date       cases
##    <chr>    <chr>  <date>     <dbl>
##  1 New York Erie   2020-03-15     3
##  2 New York Erie   2020-03-16     6
##  3 New York Erie   2020-03-17     7
##  4 New York Erie   2020-03-18     7
##  5 New York Erie   2020-03-19    28
##  6 New York Erie   2020-03-20    31
##  7 New York Erie   2020-03-21    38
##  8 New York Erie   2020-03-22    54
##  9 New York Erie   2020-03-23    87
## 10 New York Erie   2020-03-24   107
## # … with 50 more rows

mutate() (add or update) columns

erie <-
    us %>%
    filter(state == "New York", county == "Erie")
erie %>%
    mutate(new_cases = diff(c(0, cases)))
## # A tibble: 60 x 7
##    date       county state    fips  cases deaths new_cases
##    <date>     <chr>  <chr>    <chr> <dbl>  <dbl>     <dbl>
##  1 2020-03-15 Erie   New York 36029     3      0         3
##  2 2020-03-16 Erie   New York 36029     6      0         3
##  3 2020-03-17 Erie   New York 36029     7      0         1
##  4 2020-03-18 Erie   New York 36029     7      0         0
##  5 2020-03-19 Erie   New York 36029    28      0        21
##  6 2020-03-20 Erie   New York 36029    31      0         3
##  7 2020-03-21 Erie   New York 36029    38      0         7
##  8 2020-03-22 Erie   New York 36029    54      0        16
##  9 2020-03-23 Erie   New York 36029    87      0        33
## 10 2020-03-24 Erie   New York 36029   107      0        20
## # … with 50 more rows
…
us_county_cases <-
    us %>%
    group_by(county, state) %>%
    summarize(total_cases = max(cases))

us_state_cases <-
    us_county_cases %>%
    group_by(state) %>%
    summarize(total_cases = sum(total_cases))

arrange() based on a particular column; desc() in descending order.

us_county_cases %>%
    arrange(desc(total_cases))
## # A tibble: 2,937 x 3
## # Groups:   county [1,717]
##    county        state         total_cases
##    <chr>         <chr>               <dbl>
##  1 New York City New York           192394
##  2 Cook          Illinois            56406
##  3 Nassau        New York            38587
##  4 Suffolk       New York            37305
##  5 Los Angeles   California          34428
##  6 Westchester   New York            31610
##  7 Philadelphia  Pennsylvania        18779
##  8 Wayne         Michigan            18389
##  9 Middlesex     Massachusetts       18201
## 10 Bergen        New Jersey          17150
## # … with 2,927 more rows

us_state_cases %>%
    arrange(desc(total_cases))
## # A tibble: 55 x 2
##    state         total_cases
##    <chr>               <dbl>
##  1 New York           347919
##  2 New Jersey         145764
##  3 Illinois            85260
##  4 Massachusetts       81214
##  5 California          73250
##  6 Pennsylvania        62211
##  7 Michigan            48366
##  8 Texas               43863
##  9 Florida             42424
## 10 Connecticut         35142
## # … with 45 more rows

count() the number of times values occur (duration of the pandemic?)

us %>%
    count(county, state) %>%
    arrange(desc(n))
## # A tibble: 2,937 x 3
##    county        state             n
##    <chr>         <chr>         <int>
##  1 Snohomish     Washington      114
##  2 Cook          Illinois        111
##  3 Orange        California      110
##  4 Los Angeles   California      109
##  5 Maricopa      Arizona         109
##  6 Santa Clara   California      104
##  7 Suffolk       Massachusetts   103
##  8 San Francisco California      102
##  9 Dane          Wisconsin        99
## 10 San Diego     California       94
## # … with 2,927 more rows
…
Deaths lag behind cases by a week or so.

‘Long’ data and an alternative approach to plotting multiple curves.

Let’s simplify the data to just the columns of interest for this exercise

simple <-
    erie %>%
    select(date, cases, deaths)
simple
## # A tibble: 60 x 3
##    date       cases deaths
##    <date>     <dbl>  <dbl>
##  1 2020-03-15     3      0
##  2 2020-03-16     6      0
##  3 2020-03-17     7      0
##  4 2020-03-18     7      0
##  5 2020-03-19    28      0
##  6 2020-03-20    31      0
##  7 2020-03-21    38      0
##  8 2020-03-22    54      0
##  9 2020-03-23    87      0
## 10 2020-03-24   107      0
## # … with 50 more rows

Use tidyr::pivot_longer() to transform the two columns ‘cases’ and ‘deaths’ into a column that indicates ‘name’ and ‘value’; ‘name’ is ‘cases’ when the corresponding ‘value’ came from the ‘cases’ column, and similarly for ‘deaths’. See the help page ?tidyr::pivot_longer and tomorrow’s exercises for more on pivot_longer().

longer <-
    simple %>%
    pivot_longer(
        c("cases", "deaths"),
        names_to = "metric",
        values_to = "count"
    )
longer
## # A tibble: 120 x 3
##    date       metric count
##    <date>     <chr>  <dbl>
##  1 2020-03-15 cases      3
##  2 2020-03-15 deaths     0
##  3 2020-03-16 cases      6
##  4 2020-03-16 deaths     0
##  5 2020-03-17 cases      7
##  6 2020-03-17 deaths     0
##  7 2020-03-18 cases      7
##  8 2020-03-18 deaths     0
##  9 2020-03-19 cases     28
## 10 2020-03-19 deaths     0
## # … with 110 more rows
…
We’ll explore ‘facet’ visualizations, which create a panel of related plots

Setup

From the US data, extract Erie and Westchester counties and New York City. Use coi (‘counties of interest’) as a variable to hold this data

coi <-
    us %>%
    filter(
        county %in% c("Erie", "Westchester", "New York City"),
        state == "New York"
    ) %>%
    select(date, county, cases, deaths)
coi
## # A tibble: 205 x 4
##    date       county        cases deaths
##    <date>     <chr>         <dbl>  <dbl>
##  1 2020-03-01 New York City     1      0
##  2 2020-03-02 New York City     1      0
##  3 2020-03-03 New York City     2      0
##  4 2020-03-04 New York City     2      0
##  5 2020-03-04 Westchester       9      0
##  6 2020-03-05 New York City     4      0
##  7 2020-03-05 Westchester      17      0
##  8 2020-03-06 New York City     5      0
##  9 2020-03-06 Westchester      33      0
## 10 2020-03-07 New York City    12      0
## # … with 195 more rows

Pivot cases and deaths into long form

coi_longer <-
    coi %>%
    pivot_longer(
        c("cases", "deaths"),
        names_to = "metric",
        values_to = "count"
    )
coi_longer
## # A tibble: 410 x 4
##    date       county        metric count
##    <date>     <chr>         <chr>  <dbl>
##  1 2020-03-01 New York City cases      1
##  2 2020-03-01 New York City deaths     0
##  3 2020-03-02 New York City cases      1
##  4 2020-03-02 New York City deaths     0
##  5 2020-03-03 New York City cases      2
##  6 2020-03-03 New York City deaths     0
##  7 2020-03-04 New York City cases      2
##  8 2020-03-04 New York City deaths     0
##  9 2020-03-04 Westchester   cases      9
## 10 2020-03-04 Westchester   deaths     0
## # … with 400 more rows
…
COVID-19 nationally

Setup

Summarize the total (maximum) number of cases in each county and state

county_summary <-
    us %>%
    group_by(county, state) %>%
    summarize(
        cases = max(cases),
        deaths = max(deaths)
    )
county_summary
## # A tibble: 2,937 x 4
## # Groups:   county [1,717]
##    county    state          cases deaths
##    <chr>     <chr>          <dbl>  <dbl>
##  1 Abbeville South Carolina    34      0
##  2 Acadia    Louisiana        152     11
##  3 Accomack  Virginia         545      7
##  4 Ada       Idaho            754     21
##  5 Adair     Iowa               4      0
##  6 Adair     Kentucky          88     13
##  7 Adair     Missouri          12      0
##  8 Adair     Oklahoma          74      3
##  9 Adams     Colorado        2374     86
## 10 Adams     Idaho              3      0
## # … with 2,927 more rows

Now summarize the number of cases per state

state_summary <-
    county_summary %>%
    group_by(state) %>%
    summarize(
        cases = sum(cases),
        deaths = sum(deaths)
    ) %>%
    arrange(desc(cases))
state_summary
## # A tibble: 55 x 3
##    state          cases deaths
##    <chr>          <dbl>  <dbl>
##  1 New York      347919  28628
##  2 New Jersey    145764   9723
##  3 Illinois       85260   3820
##  4 Massachusetts  81214   5325
##  5 California     73250   3018
##  6 Pennsylvania   62211   4107
##  7 Michigan       48366   4716
##  8 Texas          43863   1209
##  9 Florida        42424   1862
## 10 Connecticut    35142   3127
## # … with 45 more rows
…
state_longer <-
    state_summary %>%
    mutate(
        ## this 'trick' causes 'state' to be ordered from most to
        ## least cases, rather than alphabetically
        state = factor(state, levels = state)
    ) %>%
    head(20) %>% # look at the 20 states with the most cases
    pivot_longer(
        c("cases", "deaths"),
        names_to = "metric",
        values_to = "count"
    )
state_longer
## # A tibble: 40 x 3
##    state         metric  count
##    <fct>         <chr>   <dbl>
##  1 New York      cases  347919
##  2 New York      deaths  28628
##  3 New Jersey    cases  145764
##  4 New Jersey    deaths   9723
##  5 Illinois      cases   85260
##  6 Illinois      deaths   3820
##  7 Massachusetts cases   81214
##  8 Massachusetts deaths   5325
##  9 California    cases   73250
## 10 California    deaths   3018
## # … with 30 more rows
…
tidyr::pivot_longer() takes a ‘wide’ data frame like csv, and allows us to transform it to the ‘long’ format we are interested in.

I discovered how to work with pivot_longer() using its help page ?tidyr::pivot_longer

The first argument represents columns to pivot or, as a convenience when these are negative values, columns we do not want to pivot. We do not want to pivot columns 1 through 4, so this argument will be -(1:4).

The names_to argument is the column name we want to use to refer to the names of the columns that we do pivot. We’ll pivot the columns that have a date in them, so it makes sense to use names_to = "date".

The values_to argument is the column name we want to use for the pivoted values. Since the values in the main part of csv are the number of cases observed, we’ll use values_to = "cases"

Here’s what we have after pivoting

csv %>%
    pivot_longer(-(1:4), names_to = "date", values_to = "cases")
## # A tibble: 30,324 x 6
##    `Province/State` `Country/Region`   Lat  Long date    cases
##    <chr>            <chr>            <dbl> <dbl> <chr>   <dbl>
##  1 <NA>             Afghanistan         33    65 1/22/20     0
##  2 <NA>             Afghanistan         33    65 1/23/20     0
##  3 <NA>             Afghanistan         33    65 1/24/20     0
##  4 <NA>             Afghanistan         33    65 1/25/20     0
##  5 <NA>             Afghanistan         33    65 1/26/20     0
##  6 <NA>             Afghanistan         33    65 1/27/20     0
##  7 <NA>             Afghanistan         33    65 1/28/20     0
##  8 <NA>             Afghanistan         33    65 1/29/20     0
##  9 <NA>             Afghanistan         33    65 1/30/20     0
## 10 <NA>             Afghanistan         33    65 1/31/20     0
## # … with 30,314 more rows
…
Re-name, for convenience, the County/Region column as just country. This can be done with rename(country = "Country/Region")

Select only columns of interest – country, date, cases

Some countries have multiple rows, because the data is a provincial or state levels, so we would like to sum all cases, grouped by country and date

world <-
    csv %>%
    pivot_longer(-(1:4), names_to = "date", values_to = "cases") %>%
    mutate(date = as.Date(date, format = "%m/%d/%y")) %>%
    rename(country = "Country/Region") %>%
    group_by(country, date) %>%
    summarize(cases = sum(cases))
world
## # A tibble: 21,432 x 3
## # Groups:   country [188]
##    country     date       cases
##    <chr>       <date>     <dbl>
##  1 Afghanistan 2020-01-22     0
##  2 Afghanistan 2020-01-23     0
##  3 Afghanistan 2020-01-24     0
##  4 Afghanistan 2020-01-25     0
##  5 Afghanistan 2020-01-26     0
##  6 Afghanistan 2020-01-27     0
##  7 Afghanistan 2020-01-28     0
##  8 Afghanistan 2020-01-29     0
##  9 Afghanistan 2020-01-30     0
## 10 Afghanistan 2020-01-31     0
## # … with 21,422 more rows
…
world <-
    world %>%
    group_by(country) %>%
    mutate(new_cases = diff(c(0, cases))) %>%
    ungroup()

Exploration

Use group_by() and summarize() to find the maximum (total) number of cases, and arrange() these indesc()`ending order

world %>%
    group_by(country) %>%
    summarize(n = max(cases)) %>%
    arrange(desc(n))
## # A tibble: 188 x 2
##    country              n
##    <chr>            <dbl>
##  1 US             1417774
##  2 Russia          252245
##  3 United Kingdom  234440
##  4 Spain           229540
##  5 Italy           223096
##  6 Brazil          203165
##  7 France          178994
##  8 Germany         174478
##  9 Turkey          144749
## 10 Iran            114533
## # … with 178 more rows
…
